查询大号的近10个文章 

curl 'https://api.juejin.cn/content_api/v1/article/query_list?aid=2608&uuid=7600972785922033202&spider=0' \
  -H 'accept: */*' \
  -H 'accept-language: zh-CN,zh;q=0.9' \
  -H 'content-type: application/json' \
  -b '_tea_utm_cache_2608=undefined; __tea_cookie_tokens_2608=%257B%2522web_id%2522%253A%25227600972785922033202%2522%252C%2522user_unique_id%2522%253A%25227600972785922033202%2522%252C%2522timestamp%2522%253A1769739397129%257D; passport_csrf_token=43f91fbf8fb9191b14a229dd0dc55125; passport_csrf_token_default=43f91fbf8fb9191b14a229dd0dc55125; csrf_session_id=b505a0f15ec6da34495515ee9089b57d' \
  -H 'origin: https://juejin.cn' \
  -H 'priority: u=1, i' \
  -H 'referer: https://juejin.cn/' \
  -H 'sec-ch-ua: "Not:A-Brand";v="99", "Google Chrome";v="145", "Chromium";v="145"' \
  -H 'sec-ch-ua-mobile: ?0' \
  -H 'sec-ch-ua-platform: "macOS"' \
  -H 'sec-fetch-dest: empty' \
  -H 'sec-fetch-mode: cors' \
  -H 'sec-fetch-site: same-site' \
  -H 'user-agent: Mozilla/5.0 (Macintosh; Intel Mac OS X 10_15_7) AppleWebKit/537.36 (KHTML, like Gecko) Chrome/145.0.0.0 Safari/537.36' \
  -H 'x-secsdk-csrf-token: 00010000000174124cfecfbf0e16ba53e53a30ddfb0bc598809aa3ca557bfc26c446a7fca1e01898e2b0f56c47da' \
  --data-raw '{"user_id":"994385683293918","sort_type":2,"cursor":"0"}'

  (本接口无需登陆 可以直接使用)

  返回值
  


{
    "err_no": 0,
    "err_msg": "success",
    "data": [
        {
            "article_id": "7611898858880712744"
        },
        ....
    ],
    "cursor": "10",
    "count": 23,
    "has_more": true
}


获取当前账号的收藏夹


curl 'https://api.juejin.cn/interact_api/v2/collectionset/list?aid=2608&uuid=7586574305263552043&spider=0' \
  -H 'accept: */*' \
  -H 'accept-language: zh-CN,zh;q=0.9,en;q=0.8' \
  -H 'cache-control: no-cache' \
  -H 'content-type: application/json' \
  -b '__tea_cookie_tokens_2608=%257B%2522web_id%2522%253A%25227586574305263552043%2522%252C%2522user_unique_id%2522%253A%25227586574305263552043%2522%252C%2522timestamp%2522%253A1766386989417%257D; passport_csrf_token=7abc35ca23159a09cda3ab0c856e7dfe; passport_csrf_token_default=7abc35ca23159a09cda3ab0c856e7dfe; is_staff_user=false; _ga=GA1.2.424229928.1769653318; odin_tt=5c9e3665490e61ab3446a89259d23cce802d2ee0510682a4a98d1d8ffff89069d6da0b4eb6ce0468e694e528fa6ab404347f933fa0c2265e7147904fe4e904d4; n_mh=ykUY51NBxbyNPC_Ra6RxslXK8VADvKHUr1Yf-FwjIfM; sid_guard=116c2d1999eb35913fcdbcfa8fad2c1e%7C1770347973%7C31536000%7CSat%2C+06-Feb-2027+03%3A19%3A33+GMT; uid_tt=ee8fc3d7e08f3ce4a0ed7e271ad72449; uid_tt_ss=ee8fc3d7e08f3ce4a0ed7e271ad72449; sid_tt=116c2d1999eb35913fcdbcfa8fad2c1e; sessionid=116c2d1999eb35913fcdbcfa8fad2c1e; sessionid_ss=116c2d1999eb35913fcdbcfa8fad2c1e; sid_ucp_v1=1.0.0-KDUyMDA4NWY4MmNmZjI1ZDUyNjhhZGRkNjkzOTNlZTJlY2ViOWVhYTYKFgjezbCrt4ziARDFu5XMBhiwFDgIQAsaAmxmIiAxMTZjMmQxOTk5ZWIzNTkxM2ZjZGJjZmE4ZmFkMmMxZQ; ssid_ucp_v1=1.0.0-KDUyMDA4NWY4MmNmZjI1ZDUyNjhhZGRkNjkzOTNlZTJlY2ViOWVhYTYKFgjezbCrt4ziARDFu5XMBhiwFDgIQAsaAmxmIiAxMTZjMmQxOTk5ZWIzNTkxM2ZjZGJjZmE4ZmFkMmMxZQ; session_tlb_tag=sttt%7C9%7CEWwtGZnrNZE_zbz6j60sHv________-kDSi_SMSymz2axsQXOKWna4YsfV20LXjvGrGtHSVbHhc%3D; _ga_S695FMNGPJ=GS2.2.s1770347939$o2$g1$t1770347974$j25$l0$h0; _tea_utm_cache_2608={%22utm_source%22:%22jj_nav%22}; _tea_utm_cache_576092=undefined; csrf_session_id=90a2c045efe817984cb9f364dbbbcd7f' \
  -H 'ingress-traffic-env: test-eco-8' \
  -H 'origin: https://juejin.cn' \
  -H 'pragma: no-cache' \
  -H 'priority: u=1, i' \
  -H 'referer: https://juejin.cn/' \
  -H 'sec-ch-ua: "Not:A-Brand";v="99", "Google Chrome";v="145", "Chromium";v="145"' \
  -H 'sec-ch-ua-mobile: ?0' \
  -H 'sec-ch-ua-platform: "macOS"' \
  -H 'sec-fetch-dest: empty' \
  -H 'sec-fetch-mode: cors' \
  -H 'sec-fetch-site: same-site' \
  -H 'traffic-env: test-eco-10' \
  -H 'user-agent: Mozilla/5.0 (Macintosh; Intel Mac OS X 10_15_7) AppleWebKit/537.36 (KHTML, like Gecko) Chrome/145.0.0.0 Safari/537.36' \
  -H 'x-secsdk-csrf-token: 000100000001dfbf62b21d861da5f21a8493d765df6552434cc6d62519f8d0e41a6b8f55d04a1898e2fb658a76c8' \
  --data-raw '{"limit":10,"cursor":"0","article_id":"7611732636969975823"}'

  {
    "err_no": 0,
    "err_msg": "success",
    "data": [
        {
            "collection_id": "7289368836561010744",
            "collection_name": "我的收藏",
            "description": "",
            "creator_id": "994385683293918",
            "post_article_count": 4,
            "concern_user_count": 0,
            "is_default": true,
            "permission": 1,
            "update_time": 1772248130,
            "is_follow": false,
            "is_article_in": false
        }
    ],
    "cursor": "1772248130_2452879",
    "count": 1,
    "has_more": false
}


收藏文章 

curl 'https://api.juejin.cn/interact_api/v2/collectionset/add_article?aid=2608&uuid=7586574305263552043&spider=0' \
  -H 'accept: */*' \
  -H 'accept-language: zh-CN,zh;q=0.9,en;q=0.8' \
  -H 'cache-control: no-cache' \
  -H 'content-type: application/json' \
  -b '__tea_cookie_tokens_2608=%257B%2522web_id%2522%253A%25227586574305263552043%2522%252C%2522user_unique_id%2522%253A%25227586574305263552043%2522%252C%2522timestamp%2522%253A1766386989417%257D; passport_csrf_token=7abc35ca23159a09cda3ab0c856e7dfe; passport_csrf_token_default=7abc35ca23159a09cda3ab0c856e7dfe; is_staff_user=false; _ga=GA1.2.424229928.1769653318; odin_tt=5c9e3665490e61ab3446a89259d23cce802d2ee0510682a4a98d1d8ffff89069d6da0b4eb6ce0468e694e528fa6ab404347f933fa0c2265e7147904fe4e904d4; n_mh=ykUY51NBxbyNPC_Ra6RxslXK8VADvKHUr1Yf-FwjIfM; sid_guard=116c2d1999eb35913fcdbcfa8fad2c1e%7C1770347973%7C31536000%7CSat%2C+06-Feb-2027+03%3A19%3A33+GMT; uid_tt=ee8fc3d7e08f3ce4a0ed7e271ad72449; uid_tt_ss=ee8fc3d7e08f3ce4a0ed7e271ad72449; sid_tt=116c2d1999eb35913fcdbcfa8fad2c1e; sessionid=116c2d1999eb35913fcdbcfa8fad2c1e; sessionid_ss=116c2d1999eb35913fcdbcfa8fad2c1e; sid_ucp_v1=1.0.0-KDUyMDA4NWY4MmNmZjI1ZDUyNjhhZGRkNjkzOTNlZTJlY2ViOWVhYTYKFgjezbCrt4ziARDFu5XMBhiwFDgIQAsaAmxmIiAxMTZjMmQxOTk5ZWIzNTkxM2ZjZGJjZmE4ZmFkMmMxZQ; ssid_ucp_v1=1.0.0-KDUyMDA4NWY4MmNmZjI1ZDUyNjhhZGRkNjkzOTNlZTJlY2ViOWVhYTYKFgjezbCrt4ziARDFu5XMBhiwFDgIQAsaAmxmIiAxMTZjMmQxOTk5ZWIzNTkxM2ZjZGJjZmE4ZmFkMmMxZQ; session_tlb_tag=sttt%7C9%7CEWwtGZnrNZE_zbz6j60sHv________-kDSi_SMSymz2axsQXOKWna4YsfV20LXjvGrGtHSVbHhc%3D; _ga_S695FMNGPJ=GS2.2.s1770347939$o2$g1$t1770347974$j25$l0$h0; _tea_utm_cache_2608={%22utm_source%22:%22jj_nav%22}; _tea_utm_cache_576092=undefined; csrf_session_id=90a2c045efe817984cb9f364dbbbcd7f' \
  -H 'ingress-traffic-env: test-eco-8' \
  -H 'origin: https://juejin.cn' \
  -H 'pragma: no-cache' \
  -H 'priority: u=1, i' \
  -H 'referer: https://juejin.cn/' \
  -H 'sec-ch-ua: "Not:A-Brand";v="99", "Google Chrome";v="145", "Chromium";v="145"' \
  -H 'sec-ch-ua-mobile: ?0' \
  -H 'sec-ch-ua-platform: "macOS"' \
  -H 'sec-fetch-dest: empty' \
  -H 'sec-fetch-mode: cors' \
  -H 'sec-fetch-site: same-site' \
  -H 'traffic-env: test-eco-10' \
  -H 'user-agent: Mozilla/5.0 (Macintosh; Intel Mac OS X 10_15_7) AppleWebKit/537.36 (KHTML, like Gecko) Chrome/145.0.0.0 Safari/537.36' \
  -H 'x-secsdk-csrf-token: 000100000001dfbf62b21d861da5f21a8493d765df6552434cc6d62519f8d0e41a6b8f55d04a1898e2fb658a76c8' \
  --data-raw '{"article_id":"7611732636969975823","select_collection_ids":["7289368836561010744"],"unselect_collection_ids":[],"is_collect_fast":false}'


---------- 可直接运行的 curl 示例 ----------

# 1. 查询大号近 10 篇文章（无需登录）
curl -s 'https://api.juejin.cn/content_api/v1/article/query_list?aid=2608&uuid=0&spider=0' \
  -H 'accept: */*' \
  -H 'content-type: application/json' \
  -H 'origin: https://juejin.cn' \
  -H 'referer: https://juejin.cn/' \
  -H 'user-agent: Mozilla/5.0 (Macintosh; Intel Mac OS X 10_15_7) AppleWebKit/537.36 (KHTML, like Gecko) Chrome/145.0.0.0 Safari/537.36' \
  --data-raw '{"user_id":"994385683293918","sort_type":2,"cursor":"0"}'

# 2. 收藏文章 7611432097544175643（默认第一个收藏夹 7289368836561010744）
# 将下面 -b 后的 Cookie 换成你的完整 Cookie；若 403 请从浏览器请求头复制 x-secsdk-csrf-token 并加 -H 'x-secsdk-csrf-token: <token>'
curl -s 'https://api.juejin.cn/interact_api/v2/collectionset/add_article?aid=2608&uuid=7586574305263552043&spider=0' \
  -H 'accept: */*' \
  -H 'content-type: application/json' \
  -H 'origin: https://juejin.cn' \
  -H 'referer: https://juejin.cn/' \
  -H 'user-agent: Mozilla/5.0 (Macintosh; Intel Mac OS X 10_15_7) AppleWebKit/537.36 (KHTML, like Gecko) Chrome/145.0.0.0 Safari/537.36' \
  -b '__tea_cookie_tokens_2608=%257B%2522web_id%2522%253A%25227586574305263552043%2522%252C%2522user_unique_id%2522%253A%25227586574305263552043%2522%252C%2522timestamp%2522%253A1766386989417%257D; passport_csrf_token=7abc35ca23159a09cda3ab0c856e7dfe; passport_csrf_token_default=7abc35ca23159a09cda3ab0c856e7dfe; is_staff_user=false; _ga=GA1.2.424229928.1769653318; odin_tt=5c9e3665490e61ab3446a89259d23cce802d2ee0510682a4a98d1d8ffff89069d6da0b4eb6ce0468e694e528fa6ab404347f933fa0c2265e7147904fe4e904d4; n_mh=ykUY51NBxbyNPC_Ra6RxslXK8VADvKHUr1Yf-FwjIfM; sid_guard=116c2d1999eb35913fcdbcfa8fad2c1e%7C1770347973%7C31536000%7CSat%2C+06-Feb-2027+03%3A19%3A33+GMT; uid_tt=ee8fc3d7e08f3ce4a0ed7e271ad72449; uid_tt_ss=ee8fc3d7e08f3ce4a0ed7e271ad72449; sid_tt=116c2d1999eb35913fcdbcfa8fad2c1e; sessionid=116c2d1999eb35913fcdbcfa8fad2c1e; sessionid_ss=116c2d1999eb35913fcdbcfa8fad2c1e; sid_ucp_v1=1.0.0-KDUyMDA4NWY4MmNmZjI1ZDUyNjhhZGRkNjkzOTNlZTJlY2ViOWVhYTYKFgjezbCrt4ziARDFu5XMBhiwFDgIQAsaAmxmIiAxMTZjMmQxOTk5ZWIzNTkxM2ZjZGJjZmE4ZmFkMmMxZQ; ssid_ucp_v1=1.0.0-KDUyMDA4NWY4MmNmZjI1ZDUyNjhhZGRkNjkzOTNlZTJlY2ViOWVhYTYKFgjezbCrt4ziARDFu5XMBhiwFDgIQAsaAmxmIiAxMTZjMmQxOTk5ZWIzNTkxM2ZjZGJjZmE4ZmFkMmMxZQ; session_tlb_tag=sttt%7C9%7CEWwtGZnrNZE_zbz6j60sHv________-kDSi_SMSymz2axsQXOKWna4YsfV20LXjvGrGtHSVbHhc%3D; _ga_S695FMNGPJ=GS2.2.s1770347939$o2$g1$t1770347974$j25$l0$h0; _tea_utm_cache_2608={%22utm_source%22:%22jj_nav%22}; _tea_utm_cache_576092=undefined; csrf_session_id=90a2c045efe817984cb9f364dbbbcd7f' \
  --data-raw '{"article_id":"7611432097544175643","select_collection_ids":["7289368836561010744"],"unselect_collection_ids":[],"is_collect_fast":false}'
